uP_tb.vcd
$date
	Mon Nov 23 01:04:52 2020
$end
$version
	Icarus Verilog
$end
$timescale
	1ps
$end
$scope module testbench $end
$var wire 4 ! data_bus [3:0] $end
$var wire 1 " z_flag $end
$var wire 8 # program_byte [7:0] $end
$var wire 1 $ phase $end
$var wire 4 % oprnd [3:0] $end
$var wire 4 & instr [3:0] $end
$var wire 1 ' c_flag $end
$var wire 12 ( address_RAM [11:0] $end
$var wire 4 ) accu [3:0] $end
$var wire 12 * PC [11:0] $end
$var wire 4 + FF_out [3:0] $end
$var reg 1 , clock $end
$var reg 4 - pushbuttons [3:0] $end
$var reg 1 . reset $end
$var integer 32 / immediateDelay [31:0] $end
$var integer 32 0 jumpDelay [31:0] $end
$var integer 32 1 memoryDelay [31:0] $end
$var integer 32 2 nota [31:0] $end
$scope module uPmodule $end
$var wire 1 , clock $end
$var wire 4 3 data_bus [3:0] $end
$var wire 4 4 pushbuttons [3:0] $end
$var wire 1 . reset $end
$var wire 1 " z_flag $end
$var wire 1 5 weRAM $end
$var wire 3 6 sel [2:0] $end
$var wire 8 7 program_byte [7:0] $end
$var wire 1 $ phase $end
$var wire 4 8 oprnd [3:0] $end
$var wire 1 9 oeOprnd $end
$var wire 1 : oeIN $end
$var wire 1 ; oeALU $end
$var wire 1 < loadPC $end
$var wire 1 = loadOut $end
$var wire 1 > loadFlags $end
$var wire 1 ? loadA $end
$var wire 4 @ instr [3:0] $end
$var wire 1 A incPC $end
$var wire 13 B decode_out [12:0] $end
$var wire 7 C decode_in [6:0] $end
$var wire 1 D csRAM $end
$var wire 1 ' c_flag $end
$var wire 4 E alu_out [3:0] $end
$var wire 12 F address_RAM [11:0] $end
$var wire 4 G accu [3:0] $end
$var wire 1 H Z $end
$var wire 12 I PC [11:0] $end
$var wire 4 J FF_out [3:0] $end
$var wire 1 K C $end
$scope module ACCU $end
$var wire 1 , clock $end
$var wire 1 ? loadA $end
$var wire 1 . reset $end
$var wire 4 L alu_out [3:0] $end
$var wire 4 M accu [3:0] $end
$scope module FFD_Accu $end
$var wire 1 , clock $end
$var wire 1 ? enable $end
$var wire 1 . reset $end
$var wire 4 N D [3:0] $end
$var reg 4 O Q [3:0] $end
$upscope $end
$upscope $end
$scope module ALU $end
$var wire 1 H Z $end
$var wire 4 P accu [3:0] $end
$var wire 4 Q data_bus [3:0] $end
$var wire 3 R sel [2:0] $end
$var wire 4 S alu_out [3:0] $end
$var wire 1 K C $end
$var reg 5 T q [4:0] $end
$upscope $end
$scope module BTE1 $end
$var wire 4 U data_bus [3:0] $end
$var wire 1 9 oeOprnd $end
$var wire 4 V oprnd [3:0] $end
$scope module B1 $end
$var wire 4 W OUT [3:0] $end
$var wire 1 9 enable $end
$var wire 4 X IN [3:0] $end
$upscope $end
$upscope $end
$scope module BTE2 $end
$var wire 4 Y alu_out [3:0] $end
$var wire 4 Z data_bus [3:0] $end
$var wire 1 ; oeALU $end
$scope module B2 $end
$var wire 4 [ IN [3:0] $end
$var wire 4 \ OUT [3:0] $end
$var wire 1 ; enable $end
$upscope $end
$upscope $end
$scope module BTE3 $end
$var wire 4 ] data_bus [3:0] $end
$var wire 1 : oeIN $end
$var wire 4 ^ pushbuttons [3:0] $end
$scope module B3 $end
$var wire 4 _ IN [3:0] $end
$var wire 4 ` OUT [3:0] $end
$var wire 1 : enable $end
$upscope $end
$upscope $end
$scope module DECODE $end
$var wire 7 a decode_in [6:0] $end
$var reg 13 b decode_out [12:0] $end
$upscope $end
$scope module FETCH $end
$var wire 1 , clock $end
$var wire 1 c no_phase $end
$var wire 1 . reset $end
$var wire 8 d program_byte [7:0] $end
$var wire 4 e oprnd [3:0] $end
$var wire 4 f instr [3:0] $end
$scope module FFD_I $end
$var wire 4 g D [3:0] $end
$var wire 1 , clock $end
$var wire 1 c enable $end
$var wire 1 . reset $end
$var reg 4 h Q [3:0] $end
$upscope $end
$scope module FFD_O $end
$var wire 4 i D [3:0] $end
$var wire 1 , clock $end
$var wire 1 c enable $end
$var wire 1 . reset $end
$var reg 4 j Q [3:0] $end
$upscope $end
$upscope $end
$scope module FLAGS $end
$var wire 1 K C $end
$var wire 1 H Z $end
$var wire 1 , clock $end
$var wire 1 > loadFlags $end
$var wire 1 . reset $end
$var wire 1 " z_flag $end
$var wire 1 ' c_flag $end
$scope module FFD_C $end
$var wire 1 K D $end
$var wire 1 , clock $end
$var wire 1 > enable $end
$var wire 1 . reset $end
$var reg 1 ' Q $end
$upscope $end
$scope module FFD_Z $end
$var wire 1 H D $end
$var wire 1 , clock $end
$var wire 1 > enable $end
$var wire 1 . reset $end
$var reg 1 " Q $end
$upscope $end
$upscope $end
$scope module OUTPUT $end
$var wire 1 , clock $end
$var wire 4 k data_bus [3:0] $end
$var wire 1 = loadOut $end
$var wire 1 . reset $end
$var wire 4 l FF_out [3:0] $end
$scope module FFD_Out $end
$var wire 4 m D [3:0] $end
$var wire 1 , clock $end
$var wire 1 = enable $end
$var wire 1 . reset $end
$var reg 4 n Q [3:0] $end
$upscope $end
$upscope $end
$scope module PHASE $end
$var wire 1 , clock $end
$var wire 1 . reset $end
$var wire 1 $ phase $end
$scope module Phase $end
$var wire 1 , clock $end
$var wire 1 . reset $end
$var reg 1 $ Q $end
$upscope $end
$upscope $end
$scope module PORGCOUNT $end
$var wire 12 o address_RAM [11:0] $end
$var wire 1 , clock $end
$var wire 1 A incPC $end
$var wire 1 < loadPC $end
$var wire 1 . reset $end
$var reg 12 p PC [11:0] $end
$upscope $end
$scope module RAM $end
$var wire 12 q address_RAM [11:0] $end
$var wire 1 D csRAM $end
$var wire 4 r data_bus [3:0] $end
$var wire 1 5 weRAM $end
$var reg 4 s databus [3:0] $end
$upscope $end
$scope module ROM $end
$var wire 12 t PC [11:0] $end
$var wire 8 u program_byte [7:0] $end
$upscope $end
$upscope $end
$upscope $end
$enddefinitions $end
#0
$dumpvars
bx u
bx t
bx s
bx r
bx q
bx p
bx o
bx n
bx m
bx l
bx k
bx j
bx i
bx h
bx g
bx f
bx e
bx d
xc
bx b
bx a
bx `
b110 _
b110 ^
bx ]
bx \
bx [
bx Z
bx Y
bx X
bx W
bx V
bx U
bx T
bx S
bx R
bx Q
bx P
bx O
bx N
bx M
bx L
xK
bx J
bx I
xH
bx G
bx F
bx E
xD
bx C
bx B
xA
bx @
x?
x>
x=
x<
x;
x:
x9
bx 8
bx 7
bx 6
x5
b110 4
bx 3
b0 2
b100010100 1
b1010010000 0
b10000 /
0.
b110 -
0,
bx +
bx *
bx )
bx (
x'
bx &
bx %
x$
bx #
x"
bx !
$end
#2
b0 !
b0 3
b0 Q
b0 U
b0 W
b0 Z
b0 \
b0 ]
b0 `
b0 k
b0 m
b0 r
0=
09
0:
1;
05
0D
b0 6
b0 R
0>
0?
0<
1A
b1000000001000 B
b1000000001000 b
1H
b1111 i
b100 g
b0 E
b0 L
b0 N
b0 S
b0 Y
b0 [
0K
b1001111 #
b1001111 7
b1001111 d
b1001111 u
1c
b0 T
b0 *
b0 I
b0 p
b0 t
b0 &
b0 @
b0 f
b0 h
b1001111 (
b1001111 F
b1001111 o
b1001111 q
b0 %
b0 8
b0 V
b0 X
b0 e
b0 j
0$
0'
b0 C
b0 a
0"
b0 )
b0 G
b0 M
b0 O
b0 P
b0 +
b0 J
b0 l
b0 n
1.
#3
0.
#5
0H
b1111 E
b1111 L
b1111 N
b1111 S
b1111 Y
b1111 [
b1111 T
b1111 !
b1111 3
b1111 Q
b1111 U
b1111 W
b1111 Z
b1111 \
b1111 ]
b1111 `
b1111 k
b1111 m
b1111 r
19
0;
b10 6
b10 R
1>
1?
0A
b11010000010 B
b11010000010 b
b1101 g
0c
b11011111 #
b11011111 7
b11011111 d
b11011111 u
1$
b111111011111 (
b111111011111 F
b111111011111 o
b111111011111 q
b1111 %
b1111 8
b1111 V
b1111 X
b1111 e
b1111 j
b100001 C
b100001 a
b100 &
b100 @
b100 f
b100 h
b1 *
b1 I
b1 p
b1 t
1,
#10
0,
#15
09
1;
b0 6
b0 R
0>
0?
1A
b1000000001000 B
b1000000001000 b
1c
b100000 C
b100000 a
0$
b1111 )
b1111 G
b1111 M
b1111 O
b1111 P
1,
#16
b1000110 2
#20
0,
#25
1=
0A
b1001 B
b1001 b
b1 i
b101 g
0c
b111101010001 (
b111101010001 F
b111101010001 o
b111101010001 q
b1010001 #
b1010001 7
b1010001 d
b1010001 u
1$
b1101001 C
b1101001 a
b1101 &
b1101 @
b1101 f
b1101 h
b10 *
b10 I
b10 p
b10 t
1,
#30
0,
#35
0=
1A
b1000000001000 B
b1000000001000 b
1c
b1101000 C
b1101000 a
0$
b1111 +
b1111 J
b1111 l
b1111 n
1,
#36
b1100111 2
#40
0,
#45
b110 E
b110 L
b110 N
b110 S
b110 Y
b110 [
b110 T
b110 !
b110 3
b110 Q
b110 U
b110 W
b110 Z
b110 \
b110 ]
b110 `
b110 k
b110 m
b110 r
1:
0;
b10 6
b10 R
1>
1?
0A
b11010000100 B
b11010000100 b
b0 i
b100 g
0c
b1000000 #
b1000000 7
b1000000 d
b1000000 u
1$
b101000000 (
b101000000 F
b101000000 o
b101000000 q
b1 %
b1 8
b1 V
b1 X
b1 e
b1 j
b101001 C
b101001 a
b101 &
b101 @
b101 f
b101 h
b11 *
b11 I
b11 p
b11 t
1,
#50
0,
#55
0:
1;
b0 6
b0 R
0>
0?
1A
b1000000001000 B
b1000000001000 b
1c
b101000 C
b101000 a
0$
b110 )
b110 G
b110 M
b110 O
b110 P
1,
#56
b10001000 2
#60
0,
#65
1H
b0 E
b0 L
b0 N
b0 S
b0 Y
b0 [
b0 T
b0 !
b0 3
b0 Q
b0 U
b0 W
b0 Z
b0 \
b0 ]
b0 `
b0 k
b0 m
b0 r
19
0;
b10 6
b10 R
1>
1?
0A
b11010000010 B
b11010000010 b
b1111 i
0c
b1001111 #
b1001111 7
b1001111 d
b1001111 u
1$
b1001111 (
b1001111 F
b1001111 o
b1001111 q
b0 %
b0 8
b0 V
b0 X
b0 e
b0 j
b100001 C
b100001 a
b100 &
b100 @
b100 f
b100 h
b100 *
b100 I
b100 p
b100 t
1,
#70
0,
#75
09
1;
b0 6
b0 R
0>
0?
1A
b1000000001000 B
b1000000001000 b
1c
0$
b100010 C
b100010 a
1"
b0 )
b0 G
b0 M
b0 O
b0 P
1,
#80
0,
#85
0H
b1111 E
b1111 L
b1111 N
b1111 S
b1111 Y
b1111 [
b1111 T
b1111 !
b1111 3
b1111 Q
b1111 U
b1111 W
b1111 Z
b1111 \
b1111 ]
b1111 `
b1111 k
b1111 m
b1111 r
19
0;
b10 6
b10 R
1>
1?
0A
b11010000010 B
b11010000010 b
b1010 i
b1010 g
0c
b10101010 #
b10101010 7
b10101010 d
b10101010 u
b100011 C
b100011 a
1$
b111110101010 (
b111110101010 F
b111110101010 o
b111110101010 q
b1111 %
b1111 8
b1111 V
b1111 X
b1111 e
b1111 j
b101 *
b101 I
b101 p
b101 t
1,
#90
0,
#95
09
1;
b0 6
b0 R
0>
0?
1A
b1000000001000 B
b1000000001000 b
1c
0$
b100000 C
b100000 a
0"
b1111 )
b1111 G
b1111 M
b1111 O
b1111 P
1,
#100
0,
#105
b1001 E
b1001 L
b1001 N
b1001 S
b1001 Y
b1001 [
1K
b1010 !
b1010 3
b1010 Q
b1010 U
b1010 W
b1010 Z
b1010 \
b1010 ]
b1010 `
b1010 k
b1010 m
b1010 r
b11001 T
19
0;
b11 6
b11 R
1>
1?
0A
b11011000010 B
b11011000010 b
b1000 i
b10 g
0c
b101000 #
b101000 7
b101000 d
b101000 u
1$
b101000101000 (
b101000101000 F
b101000101000 o
b101000101000 q
b1010 %
b1010 8
b1010 V
b1010 X
b1010 e
b1010 j
b1010001 C
b1010001 a
b1010 &
b1010 @
b1010 f
b1010 h
b110 *
b110 I
b110 p
b110 t
1,
#110
0,
#115
0K
b1001 !
b1001 3
b1001 Q
b1001 U
b1001 W
b1001 Z
b1001 \
b1001 ]
b1001 `
b1001 k
b1001 m
b1001 r
09
1;
b0 6
b0 R
0>
0?
1A
b1000000001000 B
b1000000001000 b
b1001 E
b1001 L
b1001 N
b1001 S
b1001 Y
b1001 [
1c
b1001 T
0$
b1010100 C
b1010100 a
1'
b1001 )
b1001 G
b1001 M
b1001 O
b1001 P
1,
#116
b10101001 2
#120
0,
#125
b1 E
b1 L
b1 N
b1 S
b1 Y
b1 [
b1000 !
b1000 3
b1000 Q
b1000 U
b1000 W
b1000 Z
b1000 \
b1000 ]
b1000 `
b1000 k
b1000 m
b1000 r
b1 T
19
0;
b1 6
b1 R
1>
0A
b1001000010 B
b1001000010 b
b1010 i
b100 g
0c
b1001010 #
b1001010 7
b1001010 d
b1001010 u
1$
b100001001010 (
b100001001010 F
b100001001010 o
b100001001010 q
b1000 %
b1000 8
b1000 V
b1000 X
b1000 e
b1000 j
b10101 C
b10101 a
b10 &
b10 @
b10 f
b10 h
b111 *
b111 I
b111 p
b111 t
1,
#130
0,
#135
b1001 E
b1001 L
b1001 N
b1001 S
b1001 Y
b1001 [
b1001 !
b1001 3
b1001 Q
b1001 U
b1001 W
b1001 Z
b1001 \
b1001 ]
b1001 `
b1001 k
b1001 m
b1001 r
b1001 T
09
1;
b0 6
b0 R
0>
1A
b1000000001000 B
b1000000001000 b
1c
0$
b10000 C
b10000 a
0'
1,
#136
b11001010 2
#140
0,
#145
b1010 E
b1010 L
b1010 N
b1010 S
b1010 Y
b1010 [
b1010 T
b1010 !
b1010 3
b1010 Q
b1010 U
b1010 W
b1010 Z
b1010 \
b1010 ]
b1010 `
b1010 k
b1010 m
b1010 r
19
0;
b10 6
b10 R
1>
1?
0A
b11010000010 B
b11010000010 b
b1100 i
b10 g
0c
b101100 #
b101100 7
b101100 d
b101100 u
1$
b101000101100 (
b101000101100 F
b101000101100 o
b101000101100 q
b1010 %
b1010 8
b1010 V
b1010 X
b1010 e
b1010 j
b100001 C
b100001 a
b100 &
b100 @
b100 f
b100 h
b1000 *
b1000 I
b1000 p
b1000 t
1,
#150
0,
#155
09
1;
b0 6
b0 R
0>
0?
1A
b1000000001000 B
b1000000001000 b
1c
b100000 C
b100000 a
0$
b1010 )
b1010 G
b1010 M
b1010 O
b1010 P
1,
#160
0,
#165
1K
b1110 E
b1110 L
b1110 N
b1110 S
b1110 Y
b1110 [
b1100 !
b1100 3
b1100 Q
b1100 U
b1100 W
b1100 Z
b1100 \
b1100 ]
b1100 `
b1100 k
b1100 m
b1100 r
b11110 T
19
0;
b1 6
b1 R
1>
0A
b1001000010 B
b1001000010 b
b1 i
b1010 g
0c
b10100001 #
b10100001 7
b10100001 d
b10100001 u
1$
b110010100001 (
b110010100001 F
b110010100001 o
b110010100001 q
b1100 %
b1100 8
b1100 V
b1100 X
b1100 e
b1100 j
b10001 C
b10001 a
b10 &
b10 @
b10 f
b10 h
b1001 *
b1001 I
b1001 p
b1001 t
1,
#170
0,
#175
b1010 E
b1010 L
b1010 N
b1010 S
b1010 Y
b1010 [
0K
b1010 !
b1010 3
b1010 Q
b1010 U
b1010 W
b1010 Z
b1010 \
b1010 ]
b1010 `
b1010 k
b1010 m
b1010 r
b1010 T
09
1;
b0 6
b0 R
0>
1A
b1000000001000 B
b1000000001000 b
1c
0$
b10100 C
b10100 a
1'
1,
#176
b11101011 2
#180
0,
#185
b1011 E
b1011 L
b1011 N
b1011 S
b1011 Y
b1011 [
0K
b1 !
b1 3
b1 Q
b1 U
b1 W
b1 Z
b1 \
b1 ]
b1 `
b1 k
b1 m
b1 r
b1011 T
19
0;
b11 6
b11 R
1>
1?
0A
b11011000010 B
b11011000010 b
b1011 i
b1110 g
0c
b11101011 #
b11101011 7
b11101011 d
b11101011 u
1$
b111101011 (
b111101011 F
b111101011 o
b111101011 q
b1 %
b1 8
b1 V
b1 X
b1 e
b1 j
b1010101 C
b1010101 a
b1010 &
b1010 @
b1010 f
b1010 h
b1010 *
b1010 I
b1010 p
b1010 t
1,
#190
0,
#195
b1011 !
b1011 3
b1011 Q
b1011 U
b1011 W
b1011 Z
b1011 \
b1011 ]
b1011 `
b1011 k
b1011 m
b1011 r
09
1;
b0 6
b0 R
0>
0?
1A
b1000000001000 B
b1000000001000 b
b1011 E
b1011 L
b1011 N
b1011 S
b1011 Y
b1011 [
1c
b1011 T
0$
b1010000 C
b1010000 a
0'
b1011 )
b1011 G
b1011 M
b1011 O
b1011 P
1,
#196
b100001100 2
#200
0,
#205
b100 E
b100 L
b100 N
b100 S
b100 Y
b100 [
b1011 !
b1011 3
b1011 Q
b1011 U
b1011 W
b1011 Z
b1011 \
b1011 ]
b1011 `
b1011 k
b1011 m
b1011 r
b100 T
19
0;
b100 6
b100 R
1>
1?
0A
b11100000010 B
b11100000010 b
b0 i
b1101 g
0c
b11010000 #
b11010000 7
b11010000 d
b11010000 u
1$
b101111010000 (
b101111010000 F
b101111010000 o
b101111010000 q
b1011 %
b1011 8
b1011 V
b1011 X
b1011 e
b1011 j
b1110001 C
b1110001 a
b1110 &
b1110 @
b1110 f
b1110 h
b1011 *
b1011 I
b1011 p
b1011 t
1,
#210
0,
#215
b100 !
b100 3
b100 Q
b100 U
b100 W
b100 Z
b100 \
b100 ]
b100 `
b100 k
b100 m
b100 r
09
1;
b0 6
b0 R
0>
0?
1A
b1000000001000 B
b1000000001000 b
b100 E
b100 L
b100 N
b100 S
b100 Y
b100 [
1c
b100 T
b1110000 C
b1110000 a
0$
b100 )
b100 G
b100 M
b100 O
b100 P
1,
#216
b101001110 2
#220
0,
#225
1=
0A
b1001 B
b1001 b
b101 g
0c
b1010000 #
b1010000 7
b1010000 d
b1010000 u
1$
b1010000 (
b1010000 F
b1010000 o
b1010000 q
b0 %
b0 8
b0 V
b0 X
b0 e
b0 j
b1101001 C
b1101001 a
b1101 &
b1101 @
b1101 f
b1101 h
b1100 *
b1100 I
b1100 p
b1100 t
1,
#230
0,
#235
0=
1A
b1000000001000 B
b1000000001000 b
1c
b1101000 C
b1101000 a
0$
b100 +
b100 J
b100 l
b100 n
1,
#236
b1110 -
b1110 4
b1110 ^
b1110 _
b101101111 2
#240
0,
#245
b1110 E
b1110 L
b1110 N
b1110 S
b1110 Y
b1110 [
b1110 T
b1110 !
b1110 3
b1110 Q
b1110 U
b1110 W
b1110 Z
b1110 \
b1110 ]
b1110 `
b1110 k
b1110 m
b1110 r
1:
0;
b10 6
b10 R
1>
1?
0A
b11010000100 B
b11010000100 b
b111 g
0c
b1110000 (
b1110000 F
b1110000 o
b1110000 q
b1110000 #
b1110000 7
b1110000 d
b1110000 u
1$
b101001 C
b101001 a
b101 &
b101 @
b101 f
b101 h
b1101 *
b1101 I
b1101 p
b1101 t
1,
#250
0,
#255
0:
1;
b0 6
b0 R
0>
0?
1A
b1000000001000 B
b1000000001000 b
1c
b101000 C
b101000 a
0$
b1110 )
b1110 G
b1110 M
b1110 O
b1110 P
1,
#256
b110010000 2
#260
0,
#265
b1110 !
b1110 3
b1110 Q
b1110 U
b1110 W
b1110 Z
b1110 \
b1110 ]
b1110 `
b1110 k
b1110 m
b1110 r
15
1D
b1000000111000 B
b1000000111000 b
b0 g
0c
b0 (
b0 F
b0 o
b0 q
b0 #
b0 7
b0 d
b0 u
1$
b111001 C
b111001 a
b111 &
b111 @
b111 f
b111 h
b1110 *
b1110 I
b1110 p
b1110 t
1,
#270
0,
#275
05
0D
b1000000001000 B
b1000000001000 b
b1111 i
b100 g
b1001111 (
b1001111 F
b1001111 o
b1001111 q
b1001111 #
b1001111 7
b1001111 d
b1001111 u
1c
b1111 *
b1111 I
b1111 p
b1111 t
b111000 C
b111000 a
0$
1,
#280
0,
#285
b1111 E
b1111 L
b1111 N
b1111 S
b1111 Y
b1111 [
b1111 T
b1111 !
b1111 3
b1111 Q
b1111 U
b1111 W
b1111 Z
b1111 \
b1111 ]
b1111 `
b1111 k
b1111 m
b1111 r
19
0;
b10 6
b10 R
1>
1?
0A
b11010000010 B
b11010000010 b
b1 i
b111 g
0c
b1110001 #
b1110001 7
b1110001 d
b1110001 u
1$
b111101110001 (
b111101110001 F
b111101110001 o
b111101110001 q
b1111 %
b1111 8
b1111 V
b1111 X
b1111 e
b1111 j
b100001 C
b100001 a
b100 &
b100 @
b100 f
b100 h
b10000 *
b10000 I
b10000 p
b10000 t
1,
#290
0,
#295
09
1;
b0 6
b0 R
0>
0?
1A
b1000000001000 B
b1000000001000 b
1c
b100000 C
b100000 a
0$
b1111 )
b1111 G
b1111 M
b1111 O
b1111 P
1,
#300
0,
#305
b1111 !
b1111 3
b1111 Q
b1111 U
b1111 W
b1111 Z
b1111 \
b1111 ]
b1111 `
b1111 k
b1111 m
b1111 r
15
1D
b1000000111000 B
b1000000111000 b
b1 g
0c
b10001 #
b10001 7
b10001 d
b10001 u
1$
b100010001 (
b100010001 F
b100010001 o
b100010001 q
b1 %
b1 8
b1 V
b1 X
b1 e
b1 j
b111001 C
b111001 a
b111 &
b111 @
b111 f
b111 h
b10001 *
b10001 I
b10001 p
b10001 t
1,
#310
0,
#315
05
0D
b1000000001000 B
b1000000001000 b
b1010 i
b100 g
b101001010 (
b101001010 F
b101001010 o
b101001010 q
b1001010 #
b1001010 7
b1001010 d
b1001010 u
1c
b10010 *
b10010 I
b10010 p
b10010 t
b111000 C
b111000 a
0$
1,
#320
0,
#325
b1010 E
b1010 L
b1010 N
b1010 S
b1010 Y
b1010 [
b1010 T
b1010 !
b1010 3
b1010 Q
b1010 U
b1010 W
b1010 Z
b1010 \
b1010 ]
b1010 `
b1010 k
b1010 m
b1010 r
19
0;
b10 6
b10 R
1>
1?
0A
b11010000010 B
b11010000010 b
b10 i
b111 g
0c
b1110010 #
b1110010 7
b1110010 d
b1110010 u
1$
b101001110010 (
b101001110010 F
b101001110010 o
b101001110010 q
b1010 %
b1010 8
b1010 V
b1010 X
b1010 e
b1010 j
b100001 C
b100001 a
b100 &
b100 @
b100 f
b100 h
b10011 *
b10011 I
b10011 p
b10011 t
1,
#330
0,
#335
09
1;
b0 6
b0 R
0>
0?
1A
b1000000001000 B
b1000000001000 b
1c
b100000 C
b100000 a
0$
b1010 )
b1010 G
b1010 M
b1010 O
b1010 P
1,
#340
0,
#345
b1010 !
b1010 3
b1010 Q
b1010 U
b1010 W
b1010 Z
b1010 \
b1010 ]
b1010 `
b1010 k
b1010 m
b1010 r
15
1D
b1000000111000 B
b1000000111000 b
b10 g
0c
b100010 #
b100010 7
b100010 d
b100010 u
1$
b1000100010 (
b1000100010 F
b1000100010 o
b1000100010 q
b10 %
b10 8
b10 V
b10 X
b10 e
b10 j
b111001 C
b111001 a
b111 &
b111 @
b111 f
b111 h
b10100 *
b10100 I
b10100 p
b10100 t
1,
#350
0,
#355
05
0D
b1000000001000 B
b1000000001000 b
b1 i
b100 g
b1001000001 (
b1001000001 F
b1001000001 o
b1001000001 q
b1000001 #
b1000001 7
b1000001 d
b1000001 u
1c
b10101 *
b10101 I
b10101 p
b10101 t
b111000 C
b111000 a
0$
1,
#360
0,
#365
b1 E
b1 L
b1 N
b1 S
b1 Y
b1 [
b1 T
b1 !
b1 3
b1 Q
b1 U
b1 W
b1 Z
b1 \
b1 ]
b1 `
b1 k
b1 m
b1 r
19
0;
b10 6
b10 R
1>
1?
0A
b11010000010 B
b11010000010 b
b11 i
b111 g
0c
b1110011 #
b1110011 7
b1110011 d
b1110011 u
1$
b101110011 (
b101110011 F
b101110011 o
b101110011 q
b1 %
b1 8
b1 V
b1 X
b1 e
b1 j
b100001 C
b100001 a
b100 &
b100 @
b100 f
b100 h
b10110 *
b10110 I
b10110 p
b10110 t
1,
#370
0,
#375
09
1;
b0 6
b0 R
0>
0?
1A
b1000000001000 B
b1000000001000 b
1c
b100000 C
b100000 a
0$
b1 )
b1 G
b1 M
b1 O
b1 P
1,
#380
0,
#385
b1 !
b1 3
b1 Q
b1 U
b1 W
b1 Z
b1 \
b1 ]
b1 `
b1 k
b1 m
b1 r
15
1D
b1000000111000 B
b1000000111000 b
b11 g
0c
b110011 #
b110011 7
b110011 d
b110011 u
1$
b1100110011 (
b1100110011 F
b1100110011 o
b1100110011 q
b11 %
b11 8
b11 V
b11 X
b11 e
b11 j
b111001 C
b111001 a
b111 &
b111 @
b111 f
b111 h
b10111 *
b10111 I
b10111 p
b10111 t
1,
#390
0,
#395
05
0D
b1000000001000 B
b1000000001000 b
b0 i
b110 g
b1101100000 (
b1101100000 F
b1101100000 o
b1101100000 q
b1100000 #
b1100000 7
b1100000 d
b1100000 u
1c
b11000 *
b11000 I
b11000 p
b11000 t
b111000 C
b111000 a
0$
1,
#400
0,
#405
0H
b1110 E
b1110 L
b1110 N
b1110 S
b1110 Y
b1110 [
b1110 T
b1110 !
b1110 3
b1110 Q
b1110 U
b1110 W
b1110 Z
b1110 \
b1110 ]
b1110 `
b1110 k
b1110 m
b1110 r
b1110 s
0;
1D
b10 6
b10 R
1>
1?
b1011010100000 B
b1011010100000 b
b0 g
0c
b0 #
b0 7
b0 d
b0 u
1$
b0 (
b0 F
b0 o
b0 q
b0 %
b0 8
b0 V
b0 X
b0 e
b0 j
b110001 C
b110001 a
b110 &
b110 @
b110 f
b110 h
b11001 *
b11001 I
b11001 p
b11001 t
1,
#410
0,
#415
1;
0D
b0 6
b0 R
0>
0?
b1000000001000 B
b1000000001000 b
0H
b1110 E
b1110 L
b1110 N
b1110 S
b1110 Y
b1110 [
b1110 T
b1110 !
b1110 3
b1110 Q
b1110 U
b1110 W
b1110 Z
b1110 \
b1110 ]
b1110 `
b1110 k
b1110 m
b1110 r
b1 i
b110 g
bx s
b1100001 (
b1100001 F
b1100001 o
b1100001 q
b1100001 #
b1100001 7
b1100001 d
b1100001 u
1c
b11010 *
b11010 I
b11010 p
b11010 t
b110000 C
b110000 a
0$
b1110 )
b1110 G
b1110 M
b1110 O
b1110 P
1,
#420
0,
#425
b1111 E
b1111 L
b1111 N
b1111 S
b1111 Y
b1111 [
b1111 T
b1111 !
b1111 3
b1111 Q
b1111 U
b1111 W
b1111 Z
b1111 \
b1111 ]
b1111 `
b1111 k
b1111 m
b1111 r
b1111 s
0;
1D
b10 6
b10 R
1>
1?
b1011010100000 B
b1011010100000 b
b1 g
0c
b10001 #
b10001 7
b10001 d
b10001 u
b110001 C
b110001 a
1$
b100010001 (
b100010001 F
b100010001 o
b100010001 q
b1 %
b1 8
b1 V
b1 X
b1 e
b1 j
b11011 *
b11011 I
b11011 p
b11011 t
1,
#430
0,
#435
1;
0D
b0 6
b0 R
0>
0?
b1000000001000 B
b1000000001000 b
0H
b1111 E
b1111 L
b1111 N
b1111 S
b1111 Y
b1111 [
b1111 T
b1111 !
b1111 3
b1111 Q
b1111 U
b1111 W
b1111 Z
b1111 \
b1111 ]
b1111 `
b1111 k
b1111 m
b1111 r
b10 i
b110 g
bx s
b101100010 (
b101100010 F
b101100010 o
b101100010 q
b1100010 #
b1100010 7
b1100010 d
b1100010 u
1c
b11100 *
b11100 I
b11100 p
b11100 t
b110000 C
b110000 a
0$
b1111 )
b1111 G
b1111 M
b1111 O
b1111 P
1,
#440
0,
#445
b1010 E
b1010 L
b1010 N
b1010 S
b1010 Y
b1010 [
b1010 T
b1010 !
b1010 3
b1010 Q
b1010 U
b1010 W
b1010 Z
b1010 \
b1010 ]
b1010 `
b1010 k
b1010 m
b1010 r
b1010 s
0;
1D
b10 6
b10 R
1>
1?
b1011010100000 B
b1011010100000 b
b10 g
0c
b100010 #
b100010 7
b100010 d
b100010 u
b110001 C
b110001 a
1$
b1000100010 (
b1000100010 F
b1000100010 o
b1000100010 q
b10 %
b10 8
b10 V
b10 X
b10 e
b10 j
b11101 *
b11101 I
b11101 p
b11101 t
1,
#450
0,
#455
1;
0D
b0 6
b0 R
0>
0?
b1000000001000 B
b1000000001000 b
0H
b1010 E
b1010 L
b1010 N
b1010 S
b1010 Y
b1010 [
b1010 T
b1010 !
b1010 3
b1010 Q
b1010 U
b1010 W
b1010 Z
b1010 \
b1010 ]
b1010 `
b1010 k
b1010 m
b1010 r
b11 i
b110 g
bx s
b1001100011 (
b1001100011 F
b1001100011 o
b1001100011 q
b1100011 #
b1100011 7
b1100011 d
b1100011 u
1c
b11110 *
b11110 I
b11110 p
b11110 t
b110000 C
b110000 a
0$
b1010 )
b1010 G
b1010 M
b1010 O
b1010 P
1,
#460
0,
#465
b1 E
b1 L
b1 N
b1 S
b1 Y
b1 [
b1 T
b1 !
b1 3
b1 Q
b1 U
b1 W
b1 Z
b1 \
b1 ]
b1 `
b1 k
b1 m
b1 r
b1 s
0;
1D
b10 6
b10 R
1>
1?
b1011010100000 B
b1011010100000 b
b11 g
0c
b110011 #
b110011 7
b110011 d
b110011 u
b110001 C
b110001 a
1$
b1100110011 (
b1100110011 F
b1100110011 o
b1100110011 q
b11 %
b11 8
b11 V
b11 X
b11 e
b11 j
b11111 *
b11111 I
b11111 p
b11111 t
1,
#470
0,
#475
1;
0D
b0 6
b0 R
0>
0?
b1000000001000 B
b1000000001000 b
0H
b1 E
b1 L
b1 N
b1 S
b1 Y
b1 [
b1 T
b1 !
b1 3
b1 Q
b1 U
b1 W
b1 Z
b1 \
b1 ]
b1 `
b1 k
b1 m
b1 r
b1010 i
b100 g
bx s
b1101001010 (
b1101001010 F
b1101001010 o
b1101001010 q
b1001010 #
b1001010 7
b1001010 d
b1001010 u
1c
b100000 *
b100000 I
b100000 p
b100000 t
b110000 C
b110000 a
0$
b1 )
b1 G
b1 M
b1 O
b1 P
1,
#476
b111100000 2
#480
0,
